{
  "type": "service_account",
  "project_id": "golden-sandbox-342310",
  "private_key_id": "1533faee930f3e18ab72b0dd4dbcef7d74999022",
  "private_key": "-----BEGIN PRIVATE KEY-----\nMIIEvQIBADANBgkqhkiG9w0BAQEFAASCBKcwggSjAgEAAoIBAQC2iscdZxW+ZjeL\nTDY+d0oIdb2+ApXgbLKVti8sho81ENz2KV3xNJ3xZl6VRrag1fAT+tmd73rhx6D1\nvD20/r/KMrVpI/Io60dYpKVC7d6cZn4NStbROpEMXWsUKKiGbtPMYjTeNo2/HnAl\nFOjOMwNWq34GdrKBznqLr5jJNggXx2DZVAuktxSVhwXnh5+GKoqReNZIA+jkly2D\nWxYTP1MUmCMQBOVt3oGx1uhTAV+i2KC4vMMbPY6A6zNdK/UZqNoboDPN8j1OVwuX\nsvowJtYBaMtfoJaCEZoXPyEVjEFSvALPZch9XNn/AASopetipDD4yt+PId48rjCk\n+Rhr05jxAgMBAAECgf8skLUL+J7WXR4yY+jaV0U7y4MHYJo2sFLpOhFKTY+o5PUN\nJAxLVw04YkW1LA5qNdDnD9cRN+ZIOPSTCeIGzisEslyXzq7QTqCcg5XVQT2X8W3U\n0PChJCtFWYlK4qJCL8yFmXROzALPJh867l/n94xZHIUoDtKF3mMMt1IVzZssMpZv\nW/QPGs2REGWj7ffGVwtAZD56EgVNST9lCYC5fu2+tU95ofB+Dx/500ee9zGkVw5D\nHWana+Gz20Ilz4E6UnWZ7mcWdp50JCf4CCmIXl8bhgrOZi7T7MPwV7x9DFReWhDX\nEXDJn64P95EEuVRPDzROmEFUY1+f0+khbhm3URMCgYEA91eA0TvaqFEzJjZYZKAc\nYWoKuI2qP6hxbDsZQwc6JP5mv36UbwqHJFjQb+me15AzWGadZ2K5dzXaS1YAzqwD\nFAjn9CH6lIMeoaZIEERf6CUtqIMsCJ4qDRrMMa5rlWpRdug8AmQk/5vTp9DhjZTm\nrTN4wqyQ3fiHdsIpK1rOcUMCgYEAvO6WPtc3GaUg0pEgc2fdwFTADeIFs/9/qgOB\nu3JtAAtkXKxL8s3X6Hfy/cBxoDVSjYi4SjxQvriuwyWbKl34+ZY9WjfHtWvyVQMU\nXFgx0Uk0YP+C70O4EJ3MVHJAIwhw9Zzi/fxIXr67MeTp2pjytXhR26iimdCjgsKy\nTsWVX7sCgYEA2jLIgkzSJcCUZfZ1XjfdMZbR5GOdOFFJ1hgAvh/nDHGdhPuOyLK5\n67eqEcBAD5y3nxnPbEAsq1zHucQiLDCU+pysu7MqEs/lOuetFSSskugRcmJdezDE\nmhD06DMd148WVNak8dsUxKXcP2RHRpaANXV96AdCOX+hSYQZu5R9IG8CgYEAgefy\n+sZ0Jnf5946+J1v1h3c+js0oarl1CGtc2ow1EmDC40288vhCSp+fPocCGcxQNO0a\n+kA6rMjDsX68EAeJV+PLz6qm8MGGYJm7eDtUFbkmAMPvPaDsgNBfXHkqTGxTby4u\njcDX6f1vLUFe4mVkDQ7sCgMLuoNQymogvDTzHl0CgYEAiA2FYVo2nNE9IW6cKE9B\nY/TG9FcEQV6WRL2cGHxIS6LQyPRLB7uRVkyJpQxJ/nTEaLfTfJeK5ZEPxrOxKgKx\n9EeeA03kZKNBlxlfscqc3gZ80QkjvlLIhXYnvgf6b4UwsuhyE190W8jcdQA6BWsN\nPDEG2J6BLsnrJwypBnjIFys=\n-----END PRIVATE KEY-----\n",
  "client_email": "terraform@golden-sandbox-342310.iam.gserviceaccount.com",
  "client_id": "110000629383984518538",
  "auth_uri": "https://accounts.google.com/o/oauth2/auth",
  "token_uri": "https://oauth2.googleapis.com/token",
  "auth_provider_x509_cert_url": "https://www.googleapis.com/oauth2/v1/certs",
  "client_x509_cert_url": "https://www.googleapis.com/robot/v1/metadata/x509/terraform%40golden-sandbox-342310.iam.gserviceaccount.com"
}
